{
    "Home": {
        "Title": "Home",
        "description":"This is where Bookmarks of your Storyboards are stored",
        "header": [
            {
                "paragraph": "Below are your saved bookmarks."
            }
        ],
        "body": [
            {

            }
        ]
    }
}