{
    "StepByStep": {
        "Title": "Advanced View",
        "description":"Navigate to choose your steps below.",
        "header": [
            {
                "paragraph": "Navigate below to choose your steps"
            }
        ],
        "body": [
            {
                "JsonLink": "Flow.json"
            }
        ]
    }
}