{
    "snippet": {
        "key": "7447bf8f429b497388662da1afb9864d",
        "title": "Configuring Label Printing",
		"summary": "With Label Printing you can print active EMIS patients to a Label or Document",
        "content": [
            "section",
            {
                "link": "click here to download the pdf version of this file",
                "url": "../../Resources/Configuringlabelprinting.pdf"
            },
            {
                "paragraph": "<strong>Configuring label printing</strong>"
            },
            {
                "list": "In this section you will be shown how to:",
                "items": [
                    "Select the label printer to use",
                    "Select the label template to use",
                    "Activate EMIS recording of prescription labels",
                    "Activate additional document printing when you print prescription labels"
                ]
            },
            {
                "image": "../../Resources/configuringlabelprinting/labelprinterconfigcarousel.png"
            },
            {
                "paragraph": "<strong>Example of use:</strong>"
            },
            {
                "paragraph": "Additional document printing – switching on this feature enables you to also print documents via the label printing pop up."
            },
            {
                "paragraph": "This means that you can print full invite letters, questionnaires, advice leaflets, forms etc and append them to each prescription. All from the label printing pop up."
            },
            {
                "paragraph": "<strong>Step 1 – Configuring the label printer to use</strong>"
            },
            {
                "paragraph": "Go to Advanced>Options>Labels."
            },
            {
                "paragraph": "Under ‘Default Printers for prescription Printing’ select ‘Click to choose Label Printer’."
            },
            {
                "image": "../../Resources/configuringlabelprinting/labelprinterselecting.png"
            },
            {
                "paragraph": "Select your label printer from the list. This can be a local printer (directly connected to your computer) or a network printer."
            },
            {
                "paragraph": "<strong>Step 2 - Configuring the label template to use</strong>"
            },
            {
                "image": "../../Resources/configuringlabelprinting/labeltemplateselecting.png"
            },
            {
                "paragraph": "Select your label template from the list."
            },
            {
                "paragraph": "Click Close."
            },
            {
                "list": "For help on designing the label template view the following tutorials:",
                "items": [
                    "Creating your own prescription label template",
                    "Changing the prose on prescriptions labels"
                ]
            },
            {
                "paragraph": "<strong>Step 3 - Activating EMIS recording of prescription labels</strong>"
            },
            {
                "paragraph": "Go to Advanced>Options>Labels."
            },
            {
                "image": "../../Resources/configuringlabelprinting/selectinginsertingreadcodesvialabels.png"
            },
            {
                "paragraph": "Select ‘Insert Word Document or Label into EMIS’."
            },
            {
                "paragraph": "Click Close."
            },
            {
                "paragraph": "From now on, every time you produce a prescription label, the label will be inserted into EMIS as a label attachment and also Read coded that you have invited that person."
            },
            {
                "paragraph": "<strong>Step 4 - Activating additional document printing when you print prescription labels (optional)</strong>"
            },
            {
                "image": "../../Resources/configuringlabelprinting/additionaldocprinting.png"
            },
            {
                "paragraph": "Select ’Print a Word Document or a Label’."
            },
            {
                "paragraph": "Also select ‘Display Selection Panel’."
            },
            {
                "paragraph": "Click Close."
            },
            {
                "paragraph": "<strong>Step 5 - Configuring the document printer to use</strong>"
            },
            {
                "paragraph": "Go to Advanced>Options>Labels."
            },
            {
                "paragraph": "Under ‘Default Printers for Prescription Printing’ select ‘Click to choose Document Printer’."
            },
            {
                "image": "../../Resources/configuringlabelprinting/additionaldocprintingselectingprinter.png"
            },
            {
                "paragraph": "Select your document printer from the list. This can be a local printer (directly connected to your computer) or a network printer."
            },
            {
                "paragraph": "Click Close."
            },
            {
                "image": "../../Resources/configuringlabelprinting/additionaldocprintingpopup.png"
            },
            {
                "paragraph": "The pop up will now look like this.  In this example, clicking the Print Doc button would print the 3 documents, one after the other to your document printer."
            }
        ],
        "video": "http://www.youtube.com/watch?v=Qm09tZhzfjs"
    }
}