{
    "snippet": {
        "key": "bee8af7903844ccab2849105d079d89e",
        "title": "Creating your own prescription label Template",
		"summary": "Customise the message that appears on the prescription from a label",
        "content": [
            "section",
            {
                "link": "click here to download the pdf version of this file",
                "url": "../../Resources/Creating_your_own_prescription_label_template.pdf"
            },
            {
                "list": "In this section you will be shown how to:",
                "items": [
                    "Customise the message that appears on the prescription label template. "
                ]
            },
            {
                "paragraph": "See the tutorial on ‘Changing the prose on prescription labels’ to modify the automated clinical terms that will appear on prescription labels."
            },
            {
                "image": "../../Resources/creatingyourownprescriptionlabeltemplate/proselabelscarousel.png"
            },
            {
                "paragraph": "<strong>Example of use:</strong>"
            },
            {
                "paragraph": "PatientChase comes preloaded with 3 prescription label templates."
            },
            {
                "paragraph": "<strong>LabelsNotInTarget29x90mm.doc – </strong>A template that targets patients for their QOF targets and is sized 29mmx90mm."
            },
            {
                "paragraph": "<strong>LabelsNotInTarget62mm.doc - </strong>A template that targets patients for their QOF targets and is sized 62mmx90mm."
            },
            {
                "paragraph": "<strong>LabelsRegister29x60mm.doc – </strong>A template that targets patients for the registers they’re on and is sized 29mmx90mm."
            },
            {
                "paragraph": "You can use any of them to create automatic messages for sticking to prescriptions."
            },
            {
                "paragraph": "<strong>Step 1 – Pick the template to use.</strong>"
            },
            {
                "paragraph": "Go to Admin>Edit."
            },
            {
                "paragraph": "Select your prescription label template."
            },
            {
                "paragraph": "(In this example, we’re using LabelsNotInTarget29x90mm.doc)"
            },
            {
                "image": "../../Resources/creatingyourownprescriptionlabeltemplate/labeltemplateselecting.png"
            },
            {
                "paragraph": "Select the template to customise and click Open."
            },
            {
                "paragraph": "The template now opens in Word."
            },
            {
                "paragraph": "It looks like this:"
            },
            {
                "image": "../../Resources/creatingyourownprescriptionlabeltemplate/labeltemplatedefault.png"
            },
            {
                "paragraph": "<strong>Step 2 – Customise your text message template</strong>"
            },
            {
                "image": "../../Resources/creatingyourownprescriptionlabeltemplate/labeltemplatecustomised.png"
            },
            {
                "paragraph": "Change the wording as you see fit.  Also, resize the label if you so wish."
            },
            {
                "paragraph": "Click Save."
            },
            {
                "paragraph": "Your prescription label template has now been saved and is ready for use when choosing to chase patients via their prescriptions."
            },
            {
                "paragraph": "Note: The merge fields will automatically populate with relevant details for that patient."
            }
        ],
        "video": "http://www.youtube.com/watch?v=Qm09tZhzfjs"
    }
}