{
    "snippet": {
        "key": "27bb061b8c9a47f09f561a5c58b18881",
        "title": "Title of Snippet Goes here",
		"summary": "Summary goes here. Need to work out max number of characters allowed",
        "content": [
            "section",
            {
                "paragraph": "Lorem ipsum dolor sit amet, consectetur adipiscing elit. Nulla sollicitudin laoreet ultricies. In hac habitasse platea dictumst. Etiam ut leo ipsum, sit amet lobortis urna. Vestibulum id velit nec metus ornare aliquam. Nunc hendrerit sagittis felis, et vulputate felis tincidunt ut. Curabitur in condimentum eros. Aenean quis vulputate mauris. In condimentum sem at arcu pulvinar sagittis quis id quam. Sed dapibus, sapien a iaculis lacinia, ante odio accumsan neque, vitae suscipit dui odio et lorem. Mauris ligula dui, imperdiet quis porttitor eget, dapibus et tortor. Ut sollicitudin tincidunt tincidunt. Phasellus pulvinar laoreet purus nec scelerisque. Donec orci nibh, rutrum nec malesuada sit amet, aliquet non justo. Integer ullamcorper lobortis tortor, at malesuada turpis egestas ac. Pellentesque euismod nisl eget diam eleifend ac iaculis odio consectetur. Etiam non arcu orci, quis congue lacus."
            },
            {
                "image": "../../Resources/PainControl.jpg"
            },
            {
                "paragraph": "Donec ultricies elementum est, in auctor lorem porta sed. Cum sociis natoque penatibus et magnis dis parturient montes, nascetur ridiculus mus. Praesent varius ultricies justo consectetur tincidunt. Vestibulum ante ipsum primis in faucibus orci luctus et ultrices posuere cubilia Curae; Proin elementum mollis eleifend. Nullam tincidunt magna quis enim sollicitudin posuere. Praesent felis nibh, bibendum quis condimentum sed, rutrum vel est. Morbi ac turpis libero. Cras elementum dolor at felis condimentum accumsan."
            },
            {
                "list": "Title of Unordered List",
                "items": [
                    "item1",
                    "item2",
                    "item3"
                ]
            },
            {
                "link": "text for the link",
                "url": "../../Resources/FileToDownload.pdf"
            }
        ],
        "video": "http://www.youtube.com/watch?v=Qm09tZhzfjs"
    }
}