{
    "snippet": {
        "key": "0bba6ded2f294572a6b7906ed1abe2a7",
        "title": "Filtering a search",
		"summary": "Filter a PatientChase search with another set of criteria.",
        "content": [
            "section",
            {
                "link": "Click here to download pdf file of this section",
                "url": "../../Resources/Filtering.pdf"
            },
            {
                "list": "In this section you will be shown how to:",
                "items": [
                    "Filter a PatientChase search with another set of criteria."
                ]
            },
            {
                "image": "/Resources/Filtering/filter_carousel.png"
            },
            {
                "paragraph": "<strong>Examples of use:</strong>"
            },
            {
                "paragraph": "By merging a search done in EMIS with a PatientChase search, the EMIS search will cross-reference against the PatientChase search and identify the matching patients in PatientChase."
            },
            {
                "list": "EMIS search examples:",
                "items": [
                    "Housebounds",
                    "Patients with due diary dates",
                    "Patients with forthcoming booked appointments"

                ]
            },
            {
                "paragraph": "Those patients who appear in both the EMIS list and the PatientChase list can either be specifically targeted or deleted in one go."
            },
            {
                "paragraph": "<strong>Step 1 – Run a search in EMIS</strong>"
            },
            {
                "paragraph": "Create your search in EMIS."
            },
            {
                "paragraph": "Export this list to Excel saving it as a CSV (comma delimited) file. Save the file in a location on your computer that you can easily access."
            },
            {
                "paragraph": "In this example the file is a housebound file and is saved onto the desktop."
            },
            {
                "image": "/Resources/Filtering/filter_export.png"
            },
            {
                "paragraph": "<strong>Step 2 - Open the results view of the PatientChase search that you wish to filter</strong>"
            },
            {
                "image": "/Resources/Filtering/step_2.png"
            },
            {
                "paragraph": "<strong>Step 3 – Halve the screen size of PatientChase so that you can see both PatientChase and the file you’ve exported from EMIS</strong>"
            },
            {
                "image": "/Resources/Filtering/step_3.png"
            },
            {
                "paragraph": "Step 4 – Drag and drop your EMIS file into PatientChase"
            },
            {
                "paragraph": "Click on the EMIS file (no need to open it) and drag and drop it into the list of patients in PatientChase."
            },
            {
                "image": "/Resources/Filtering/step_4.png"
            },
            {
                "paragraph": "<strong>To remove those patients</strong> Right click and click Delete Selected Patients."
            },
            {
                "paragraph": "<strong>To focus on those patients</strong> Right click and click Delete Unselected patients."
            }
        ],
        "video": "http://www.youtube.com/watch?v=Qm09tZhzfjs"
    }
}